{
    "type": "service_account",
    "project_id": "xxxx-xxxx",
    "private_key_id": "xxxxxxxxxxxxxxxxxxxx",
    "private_key": "xxxxxxxxxxxxxxxxxxxx",
    "client_email": "xxxx@xxxx.iam.gserviceaccount.com",
    "client_id": "xxxxxxxxxxxxxxxxxxxx",
    "auth_uri": "https://accounts.google.com/o/oauth2/auth",
    "token_uri": "https://oauth2.googleapis.com/token",
    "auth_provider_x509_cert_url": "https://www.googleapis.com/oauth2/v1/certs",
    "client_x509_cert_url": "https://www.googleapis.com/robot/v1/metadata/x509/xxxx.iam.gserviceaccount.com"
}
